{
  "status": "OK",
  "code": "200",
  "message": null,
  "data": {
    "content": [{
      "id": "802736426121695232",
      "name": "Teambotion",
      "desc": "Teambotion",
      "createTime": 1611457678109,
      "type": "REST_WEB",
      "allowAccess": false,
      "accessPassword": "d83589b7daa4db3ab3babf4d86e85ea6",
      "accessURL": null
    }, {
      "id": "802736487534694400",
      "name": "Google Cloud Console",
      "desc": "Google Cloud Console",
      "createTime": 1611457692751,
      "type": "REST_WEB",
      "allowAccess": false,
      "accessPassword": "020b315a0b2a1df2ddf362254fb60cb1",
      "accessURL": null
    }, {
      "id": "873488061877456896",
      "name": "123213",
      "desc": "12312331",
      "createTime": 1628326182575,
      "type": "REST_WEB",
      "allowAccess": false,
      "accessPassword": "9a1b5c32798ef3b77b099a975535aace",
      "accessURL": null
    }, {
      "id": "873495461359521792",
      "name": "123",
      "desc": "12312312",
      "createTime": 1628327946749,
      "type": "REST_WEB",
      "allowAccess": false,
      "accessPassword": "85c5061b818a488e17d3474c034477f2",
      "accessURL": null
    }, {
      "id": "873500354216464384",
      "name": "1232",
      "desc": "13213",
      "createTime": 1628329113297,
      "type": "REST_WEB",
      "allowAccess": false,
      "accessPassword": "b1819cb135002702ed95bbeca9ade739",
      "accessURL": null
    }],
    "pageable": {
      "sort": {
        "sorted": false,
        "unsorted": true,
        "empty": true
      },
      "pageNumber": 0,
      "pageSize": 5,
      "offset": 0,
      "unpaged": false,
      "paged": true
    },
    "totalElements": 14,
    "totalPages": 3,
    "last": false,
    "sort": {
      "sorted": false,
      "unsorted": true,
      "empty": true
    },
    "numberOfElements": 5,
    "first": true,
    "size": 5,
    "number": 0,
    "empty": false
  }
}